[
    {
        "hash": "BLLb21CvqzfGA4sXTBzLGq6xCihk9k8Jx2zPDMmPxffGCKAmQdj",
        "predecessor": "BLqpAmsWh6Pvy4Enbt1wpGAMFzEaU8TXC7ho86x8G9XMdC3Li8J",
        "level": 1875165,
        "timestamp": "2021-11-18T22:18:42.000Z"
    },
    {
        "hash": "BKxajcViLrtzv1FteZPKPBXqN8aW8pE4LjJKWGSrTd4ciELHc1z",
        "predecessor": "BLLb21CvqzfGA4sXTBzLGq6xCihk9k8Jx2zPDMmPxffGCKAmQdj",
        "level": 1875166,
        "timestamp": "2021-11-18T22:19:12.000Z"
    }
]